…
    ## Warning: There were 43 warnings in `mutate()`.
    ## The first warning was:
    ## ℹ In argument: `tidy_model = map(glm_model, ~tidy(., conf.int = TRUE,
    ##   exponentiate = TRUE))`.
    ## ℹ In group 1: `city_state = "Albuquerque, NM"`.
    ## Caused by warning:
    ## ! glm.fit: fitted probabilities numerically 0 or 1 occurred
    ## ℹ Run `dplyr::last_dplyr_warnings()` to see the 42 remaining warnings.

    ## # A tibble: 47 × 4
    ## # Groups:   city_state [47]
    ##    city_state       estimate conf.low conf.high
    ##    <fct>               <dbl>    <dbl>     <dbl>
    ##  1 New York, NY        0.161   0.0691     0.331
    ##  2 Long Beach, CA      0.165   0.0258     0.588
    ##  3 Denver, CO          0.187   0.0613     0.466
    ##  4 San Diego, CA       0.194   0.0560     0.511
    ##  5 Cincinnati, OH      0.206   0.0977     0.390
    ##  6 San Antonio, TX     0.288   0.126      0.595
    ##  7 Charlotte, NC       0.301   0.143      0.572
    ##  8 Baton Rouge, LA     0.319   0.160      0.596
    ##  9 Philadelphia, PA    0.324   0.235      0.440
    ## 10 Sacramento, CA      0.337   0.132      0.757
    ## # ℹ 37 more rows
…
